Data Wrangling in R
…
# Every session — load the package into memory
library(tidyverse)

# Read the data
ideal <- read_csv("https://raw.githubusercontent.com/ThumbiMwangi/R_sources/master/ideal3a.csv")

Once a package is installed, you never need install.packages() again — only library().

The IDEAL Dataset

# A tibble prints its dimensions and column types automatically
ideal

# A tibble: 270 × 26
   CalfID      CalfSex sublocation CADOB    ReasonsLoss Education Distance_water
   <chr>         <dbl> <chr>       <chr>          <dbl> <chr>     <chr>         
 1 CA010110028       1 East Siboti 31/07/2…           7 Primary … <1 km         
 2 CA010210036       2 Kidera      12/3/20…           7 Primary … 1-5 km        
 3 CA010210036       2 Kidera      12/3/20…           7 Primary … 1-5 km        
 4 CA010210036       2 Kidera      12/3/20…           7 Primary … 1-5 km        
 5 CA010210036       2 Kidera      12/3/20…           7 Primary … 1-5 km        
 6 CA010210038       1 Kidera      18/04/2…          NA Primary … <1 km         
 7 CA010210038       1 Kidera      18/04/2…          NA Primary … <1 km         
 8 CA010210038       1 Kidera      18/04/2…          NA Primary … <1 km         
 9 CA010210038       1 Kidera      18/04/2…          NA Primary … <1 km         
10 CA010210038       1 Kidera      18/04/2…          NA Primary … <1 km         
# ℹ 260 more rows
# ℹ 19 more variables: RecruitWeight <dbl>, VisitID <chr>, VisitDate <chr>,
#   Weight <dbl>, ManualPCV <dbl>, Theileria.spp. <dbl>, ELISA_mutans <dbl>,
#   ELISA_parva <dbl>, Q.Strongyle.eggs <dbl>, ReasonsLoss1 <chr>, ADWG <dbl>,
#   timespent <dbl>, Age <dbl>, VisitDate1 <date>, CADOB1 <date>,
#   VisitTime <dbl>, VisitWeek <dbl>, WeightMax <dbl>, WeightMin <dbl>
…
# These two lines produce identical output
ideal %>% filter(ReasonsLoss1 == "survived")
ideal |>  filter(ReasonsLoss1 == "survived")

filter() — Keeping the Rows You Need

filter() evaluates a condition row by row and returns only the rows where the condition is TRUE. Every other row is silently discarded leaving the column structure is unchanged.

# Keep only calves that did not survive
ideal |>
  filter(ReasonsLoss1 == "died")

# A tibble: 48 × 26
   CalfID      CalfSex sublocation CADOB    ReasonsLoss Education Distance_water
   <chr>         <dbl> <chr>       <chr>          <dbl> <chr>     <chr>         
 1 CA010110028       1 East Siboti 31/07/2…           7 Primary … <1 km         
 2 CA010210036       2 Kidera      12/3/20…           7 Primary … 1-5 km        
 3 CA010210036       2 Kidera      12/3/20…           7 Primary … 1-5 km        
 4 CA010210036       2 Kidera      12/3/20…           7 Primary … 1-5 km        
 5 CA010210036       2 Kidera      12/3/20…           7 Primary … 1-5 km        
 6 CA010310064       1 Kokare      3/1/2008           7 Primary … <1 km         
 7 CA010310064       1 Kokare      3/1/2008           7 Primary … <1 km         
 8 CA010310064       1 Kokare      3/1/2008           7 Primary … <1 km         
 9 CA010310064       1 Kokare      3/1/2008           7 Primary … <1 km         
10 CA010310064       1 Kokare      3/1/2008           7 Primary … <1 km         
# ℹ 38 more rows
# ℹ 19 more variables: RecruitWeight <dbl>, VisitID <chr>, VisitDate <chr>,
#   Weight <dbl>, ManualPCV <dbl>, Theileria.spp. <dbl>, ELISA_mutans <dbl>,
#   ELISA_parva <dbl>, Q.Strongyle.eggs <dbl>, ReasonsLoss1 <chr>, ADWG <dbl>,
#   timespent <dbl>, Age <dbl>, VisitDate1 <date>, CADOB1 <date>,
#   VisitTime <dbl>, VisitWeek <dbl>, WeightMax <dbl>, WeightMin <dbl>
…
Column names containing . require backticks: `Theileria.spp.`. This friction is precisely why rename() matters — which we cover shortly.

filter() — Handling Missing Values

Missing values are R’s most common source of silent, hard-to-detect errors. The rule is simple: NA == NA returns NA, not TRUE. That means filter(Weight == NA) always returns zero rows — even when missing values exist.

# use is.na() to test for missingness
ideal |>
  filter(!is.na(Weight))   # keep rows where weight was recorded

# A tibble: 196 × 26
   CalfID      CalfSex sublocation CADOB    ReasonsLoss Education Distance_water
   <chr>         <dbl> <chr>       <chr>          <dbl> <chr>     <chr>         
 1 CA010110028       1 East Siboti 31/07/2…           7 Primary … <1 km         
 2 CA010210036       2 Kidera      12/3/20…           7 Primary … 1-5 km        
 3 CA010210036       2 Kidera      12/3/20…           7 Primary … 1-5 km        
 4 CA010210036       2 Kidera      12/3/20…           7 Primary … 1-5 km        
 5 CA010210036       2 Kidera      12/3/20…           7 Primary … 1-5 km        
 6 CA010210038       1 Kidera      18/04/2…          NA Primary … <1 km         
 7 CA010210038       1 Kidera      18/04/2…          NA Primary … <1 km         
 8 CA010210038       1 Kidera      18/04/2…          NA Primary … <1 km         
 9 CA010210038       1 Kidera      18/04/2…          NA Primary … <1 km         
10 CA010210038       1 Kidera      18/04/2…          NA Primary … <1 km         
# ℹ 186 more rows
# ℹ 19 more variables: RecruitWeight <dbl>, VisitID <chr>, VisitDate <chr>,
#   Weight <dbl>, ManualPCV <dbl>, Theileria.spp. <dbl>, ELISA_mutans <dbl>,
#   ELISA_parva <dbl>, Q.Strongyle.eggs <dbl>, ReasonsLoss1 <chr>, ADWG <dbl>,
#   timespent <dbl>, Age <dbl>, VisitDate1 <date>, CADOB1 <date>,
#   VisitTime <dbl>, VisitWeek <dbl>, WeightMax <dbl>, WeightMin <dbl>
…
A well-structured analysis uses only the columns it needs, named in a way that makes code self-explanatory.

select() shapes the column space;

rename() removes the friction of working with raw source names.

select() — Choosing Your Columns

Pass column names directly. select() returns a tibble with exactly those columns in the order you listed them. Rows are untouched.

ideal |>
  dplyr::select(CalfID, sublocation, CalfSex, Weight, ManualPCV,`Theileria.spp.`, ReasonsLoss1)

# A tibble: 270 × 7
   CalfID      sublocation CalfSex Weight ManualPCV Theileria.spp. ReasonsLoss1
   <chr>       <chr>         <dbl>  <dbl>     <dbl>          <dbl> <chr>       
 1 CA010110028 East Siboti       1     19        40              0 died        
 2 CA010210036 Kidera            2     15        32              0 died        
 3 CA010210036 Kidera            2     20        38              0 died        
 4 CA010210036 Kidera            2     34        26              0 died        
 5 CA010210036 Kidera            2     29        30              0 died        
 6 CA010210038 Kidera            1     43        27              1 survived    
 7 CA010210038 Kidera            1     25        26              0 survived    
 8 CA010210038 Kidera            1     NA        29              1 survived    
 9 CA010210038 Kidera            1     36        33              1 survived    
10 CA010210038 Kidera            1     72        34              1 survived    
# ℹ 260 more rows

Columns with . in their names still require backticks inside select(). One of many reasons to rename() early.

select() — Dropping Columns

Prefix any name with - to drop it instead of keeping it. When you want most columns but not a few, dropping is more concise than listing every keeper.

# remove administrative columns
ideal |>
  select(-CADOB, -VisitID, -VisitWeek, -WeightMax, -WeightMin)

# A tibble: 270 × 21
   CalfID CalfSex sublocation ReasonsLoss Education Distance_water RecruitWeight
   <chr>    <dbl> <chr>             <dbl> <chr>     <chr>                  <dbl>
 1 CA010…       1 East Siboti           7 Primary … <1 km                     19
 2 CA010…       2 Kidera                7 Primary … 1-5 km                    15
 3 CA010…       2 Kidera                7 Primary … 1-5 km                    15
 4 CA010…       2 Kidera                7 Primary … 1-5 km                    15
 5 CA010…       2 Kidera                7 Primary … 1-5 km                    15
 6 CA010…       1 Kidera               NA Primary … <1 km                     20
 7 CA010…       1 Kidera               NA Primary … <1 km                     20
 8 CA010…       1 Kidera               NA Primary … <1 km                     20
 9 CA010…       1 Kidera               NA Primary … <1 km                     20
10 CA010…       1 Kidera               NA Primary … <1 km                     20
# ℹ 260 more rows
# ℹ 14 more variables: VisitDate <chr>, Weight <dbl>, ManualPCV <dbl>,
#   Theileria.spp. <dbl>, ELISA_mutans <dbl>, ELISA_parva <dbl>,
#   Q.Strongyle.eggs <dbl>, ReasonsLoss1 <chr>, ADWG <dbl>, timespent <dbl>,
#   Age <dbl>, VisitDate1 <date>, CADOB1 <date>, VisitTime <dbl>
…
Each condition is evaluated top-to-bottom; the first TRUE match determines the value assigned to that row.

ideal |>
  dplyr::mutate(
    anaemia_class = case_when(
      is.na(ManualPCV) ~ "Unknown",  # always test for NA first
      ManualPCV < 24 ~ "Severe anaemia",
      ManualPCV < 30 ~ "Mild anaemia",
      TRUE  ~ "Normal" # the catch-all
    )
  ) |>
  dplyr::select(CalfID, ManualPCV, anaemia_class)

# A tibble: 270 × 3
   CalfID      ManualPCV anaemia_class
   <chr>           <dbl> <chr>        
 1 CA010110028        40 Normal       
 2 CA010210036        32 Normal       
 3 CA010210036        38 Normal       
 4 CA010210036        26 Mild anaemia 
 5 CA010210036        30 Normal       
 6 CA010210038        27 Mild anaemia 
 7 CA010210038        26 Mild anaemia 
 8 CA010210038        29 Mild anaemia 
 9 CA010210038        33 Normal       
10 CA010210038        34 Normal       
# ℹ 260 more rows
…
